Project 1: Exploratory Data Analysis - Jamie Hellwege, jrh5794
…
## # A tibble: 1 x 1
##   `min(change)`
##           <dbl>
## 1            -2

totaldata %>% summarize(max(total))

## # A tibble: 1 x 1
##   `max(total)`
##          <int>
## 1       143952

totaldata %>% select(Year = year, `Total GDP` = level, `Total Unemployed` = unemployed)

## # A tibble: 420 x 3
##     Year `Total GDP` `Total Unemployed`
##    <int>       <dbl>              <int>
##  1  1941        129.               5560
##  2  1941        129.               5560
##  3  1941        129.               5560
##  4  1941        129.               5560
##  5  1941        129.               5560
##  6  1941        129.               5560
##  7  1942        166                2660
##  8  1942        166                2660
##  9  1942        166                2660
## 10  1942        166                2660
## # … with 410 more rows
…
## # A tibble: 6 x 2
##   category   percentage
##   <chr>           <dbl>
## 1 population       59.3
## 2 population       59.3
## 3 employed         56.7
## 4 employed         56.7
## 5 unemployed        4.4
## 6 unemployed        4.4

totaldata %>% group_by(year) %>% select(employed_total, unemployed) %>% 
    mutate(ratio = employed_total/unemployed) %>% arrange(desc(ratio))

## # A tibble: 420 x 4
## # Groups:   year [70]
##     year employed_total unemployed ratio
##    <int>          <int>      <int> <dbl>
##  1  1944          53960        670  80.5
##  2  1944          53960        670  80.5
##  3  1944          53960        670  80.5
##  4  1944          53960        670  80.5
##  5  1944          53960        670  80.5
##  6  1944          53960        670  80.5
##  7  1943          54470       1070  50.9
##  8  1943          54470       1070  50.9
##  9  1943          54470       1070  50.9
## 10  1943          54470       1070  50.9
## # … with 410 more rows

totaldata %>% group_by(year) %>% select(population, unemployed) %>% 
    mutate(ratio2 = population/unemployed) %>% arrange(-desc(ratio2))

## # A tibble: 420 x 4
## # Groups:   year [70]
##     year population unemployed ratio2
##    <int>      <int>      <int>  <dbl>
##  1  2010     237830      14825   16.0
##  2  2010     237830      14825   16.0
##  3  2010     237830      14825   16.0
##  4  2010     237830      14825   16.0
##  5  2010     237830      14825   16.0
##  6  2010     237830      14825   16.0
##  7  1982     172271      10678   16.1
##  8  1982     172271      10678   16.1
##  9  1982     172271      10678   16.1
## 10  1982     172271      10678   16.1
## # … with 410 more rows

totaldata %>% group_by(year) %>% select(level, unemployed) %>% 
    mutate(ratio3 = unemployed/level) %>% arrange(-desc(ratio3))

## # A tibble: 420 x 4
## # Groups:   year [70]
##     year  level unemployed ratio3
##    <int>  <dbl>      <int>  <dbl>
##  1  2007 14478.       7078  0.489
##  2  2007 14478.       7078  0.489
##  3  2007 14478.       7078  0.489
##  4  2007 14478.       7078  0.489
##  5  2007 14478.       7078  0.489
##  6  2007 14478.       7078  0.489
##  7  2006 13856.       7001  0.505
##  8  2006 13856.       7001  0.505
##  9  2006 13856.       7001  0.505
## 10  2006 13856.       7001  0.505
## # … with 410 more rows
…
final <- totaldata %>% select(level, unemployed, employed_total) %>% 
    mutate(cluster = pam2$clustering)
final

## # A tibble: 420 x 4
##    level unemployed employed_total cluster
##    <dbl>      <int>          <int>   <int>
##  1  129.       5560          50350       1
##  2  129.       5560          50350       1
##  3  129.       5560          50350       1
##  4  129.       5560          50350       1
##  5  129.       5560          50350       1
##  6  129.       5560          50350       1
##  7  166        2660          53750       1
##  8  166        2660          53750       1
##  9  166        2660          53750       1
## 10  166        2660          53750       1
## # … with 410 more rows
…
